{
    "paging": {
        "page": 1,
        "total": 1850,
        "page_size": 20,
        "pages": 93
    },
    "loans": [
              {
              "id": 688456,
              "name": "Marie",
              "description": {
              "languages": [
                            "en"
                            ]
              },
              "status": "fundraising",
              "funded_amount": 0,
              "basket_amount": 0,
              "image": {
              "id": 1567997,
              "template_id": 1
              },
              "activity": "Food Market",
              "sector": "Food",
              "theme": "Conflict Zones",
              "use": "to purchase more pepper, bitter-ball, plantain, etc. for her business.",
              "location": {
              "country_code": "LR",
              "country": "Liberia",
              "town": "Tappita",
              "geo": {
              "level": "country",
              "pairs": "6.5 -9.5",
              "type": "point"
              }
              },
              "partner_id": 182,
              "posted_date": "2014-03-26T16:00:02Z",
              "planned_expiration_date": "2014-04-25T16:00:02Z",
              "loan_amount": 375,
              "borrower_count": 1,
              "lender_count": 0,
              "bonus_credit_eligibility": false
              },
              {
              "id": 686776,
              "name": "Cesar Augusto",
              "description": {
              "languages": [
                            "es",
                            "en"
                            ]
              },
              "status": "fundraising",
              "funded_amount": 0,
              "basket_amount": 0,
              "image": {
              "id": 1564930,
              "template_id": 1
              },
              "activity": "Rickshaw",
              "sector": "Transportation",
              "theme": "Underfunded Areas",
              "use": "buy replacement parts for his moto-taxi, to give customers better service.",
              "location": {
              "country_code": "PE",
              "country": "Peru",
              "town": "Pucará - Jaén - Cajamarca",
              "geo": {
              "level": "country",
              "pairs": "-10 -76",
              "type": "point"
              }
              },
              "partner_id": 143,
              "posted_date": "2014-03-26T15:50:02Z",
              "planned_expiration_date": "2014-04-25T15:50:02Z",
              "loan_amount": 200,
              "borrower_count": 1,
              "lender_count": 0,
              "bonus_credit_eligibility": true
              },
              {
              "id": 686775,
              "name": "Rogelio",
              "description": {
              "languages": [
                            "es",
                            "en"
                            ]
              },
              "status": "fundraising",
              "funded_amount": 0,
              "basket_amount": 0,
              "image": {
              "id": 1564925,
              "template_id": 1
              },
              "activity": "Bakery",
              "sector": "Food",
              "theme": "Underfunded Areas",
              "use": "To purchase supplies such as flour, sugar, and baking powder to make his bakeries' products",
              "location": {
              "country_code": "PE",
              "country": "Peru",
              "town": "Lagunas - Chiclayo",
              "geo": {
              "level": "country",
              "pairs": "-10 -76",
              "type": "point"
              }
              },
              "partner_id": 143,
              "posted_date": "2014-03-26T15:50:01Z",
              "planned_expiration_date": "2014-04-25T15:50:01Z",
              "loan_amount": 1075,
              "borrower_count": 1,
              "lender_count": 0,
              "bonus_credit_eligibility": true
              },
              {
              "id": 688283,
              "name": "Midogan Group",
              "description": {
              "languages": [
                            "fr",
                            "en"
                            ]
              },
              "status": "fundraising",
              "funded_amount": 0,
              "basket_amount": 0,
              "image": {
              "id": 1565827,
              "template_id": 1
              },
              "activity": "Food Production/Sales",
              "sector": "Food",
              "use": "to buy condiments for resale.",
              "location": {
              "country_code": "BJ",
              "country": "Benin",
              "geo": {
              "level": "country",
              "pairs": "9.5 2.25",
              "type": "point"
              }
              },
              "partner_id": 104,
              "posted_date": "2014-03-26T15:50:01Z",
              "planned_expiration_date": "2014-04-25T15:50:01Z",
              "loan_amount": 675,
              "borrower_count": 3,
              "lender_count": 0,
              "bonus_credit_eligibility": true
              },
              {
              "id": 686773,
              "name": "Jorge Luis",
              "description": {
              "languages": [
                            "es",
                            "en"
                            ]
              },
              "status": "fundraising",
              "funded_amount": 0,
              "basket_amount": 0,
              "image": {
              "id": 1564918,
              "template_id": 1
              },
              "activity": "Animal Sales",
              "sector": "Agriculture",
              "theme": "Underfunded Areas",
              "use": "to buy cement and bricks to build corrals for his animals.",
              "location": {
              "country_code": "PE",
              "country": "Peru",
              "town": "Oyotún - Chiclayo",
              "geo": {
              "level": "country",
              "pairs": "-10 -76",
              "type": "point"
              }
              },
              "partner_id": 143,
              "posted_date": "2014-03-26T15:40:02Z",
              "planned_expiration_date": "2014-04-25T15:40:02Z",
              "loan_amount": 1075,
              "borrower_count": 1,
              "lender_count": 0,
              "bonus_credit_eligibility": true
              },
              {
              "id": 688277,
              "name": "El Hdji",
              "description": {
              "languages": [
                            "fr",
                            "en"
                            ]
              },
              "status": "fundraising",
              "funded_amount": 0,
              "basket_amount": 0,
              "image": {
              "id": 1567733,
              "template_id": 1
              },
              "activity": "Agriculture",
              "sector": "Agriculture",
              "use": "to buy onion seed, herbicides and fertilizers. \r\n",
              "location": {
              "country_code": "SN",
              "country": "Senegal",
              "town": "Témeye",
              "geo": {
              "level": "country",
              "pairs": "14 -14",
              "type": "point"
              }
              },
              "partner_id": 310,
              "posted_date": "2014-03-26T15:30:02Z",
              "planned_expiration_date": "2014-04-25T15:30:02Z",
              "loan_amount": 1075,
              "borrower_count": 1,
              "lender_count": 0,
              "bonus_credit_eligibility": false
              },
              {
              "id": 686763,
              "name": "Teodolinda",
              "description": {
              "languages": [
                            "es",
                            "en"
                            ]
              },
              "status": "fundraising",
              "funded_amount": 0,
              "basket_amount": 0,
              "image": {
              "id": 1564889,
              "template_id": 1
              },
              "activity": "General Store",
              "sector": "Retail",
              "theme": "Underfunded Areas",
              "use": "purchase products in bulk such as rice, sugar and other items to stock her business.",
              "location": {
              "country_code": "PE",
              "country": "Peru",
              "town": "Buenos Aires - Morropon - Piura",
              "geo": {
              "level": "country",
              "pairs": "-10 -76",
              "type": "point"
              }
              },
              "partner_id": 143,
              "posted_date": "2014-03-26T15:30:01Z",
              "planned_expiration_date": "2014-04-25T15:30:01Z",
              "loan_amount": 725,
              "borrower_count": 1,
              "lender_count": 0,
              "bonus_credit_eligibility": true
              },
              {
              "id": 686772,
              "name": "José Israel",
              "description": {
              "languages": [
                            "es",
                            "en"
                            ]
              },
              "status": "fundraising",
              "funded_amount": 0,
              "basket_amount": 0,
              "image": {
              "id": 1564916,
              "template_id": 1
              },
              "activity": "Livestock",
              "sector": "Agriculture",
              "theme": "Rural Exclusion",
              "use": "to buy a heifer.",
              "location": {
              "country_code": "SV",
              "country": "El Salvador",
              "town": "Usulután",
              "geo": {
              "level": "country",
              "pairs": "13.833333 -88.916667",
              "type": "point"
              }
              },
              "partner_id": 199,
              "posted_date": "2014-03-26T15:30:01Z",
              "planned_expiration_date": "2014-04-25T15:30:01Z",
              "loan_amount": 650,
              "borrower_count": 1,
              "lender_count": 0,
              "bonus_credit_eligibility": true
              },
              {
              "id": 686771,
              "name": "Amelia Leticia",
              "description": {
              "languages": [
                            "es",
                            "en"
                            ]
              },
              "status": "fundraising",
              "funded_amount": 0,
              "basket_amount": 0,
              "image": {
              "id": 1564912,
              "template_id": 1
              },
              "activity": "Agriculture",
              "sector": "Agriculture",
              "theme": "Underfunded Areas",
              "use": "to pay for day laborers to maintain her rice crop.",
              "location": {
              "country_code": "PE",
              "country": "Peru",
              "town": "Pomahuaca - Jaen - Cajamarca",
              "geo": {
              "level": "country",
              "pairs": "-10 -76",
              "type": "point"
              }
              },
              "partner_id": 143,
              "posted_date": "2014-03-26T15:20:02Z",
              "planned_expiration_date": "2014-04-25T15:20:01Z",
              "loan_amount": 725,
              "borrower_count": 1,
              "lender_count": 0,
              "bonus_credit_eligibility": true
              },
              {
              "id": 688274,
              "name": "Normal Group",
              "description": {
              "languages": [
                            "fr",
                            "en"
                            ]
              },
              "status": "fundraising",
              "funded_amount": 0,
              "basket_amount": 0,
              "image": {
              "id": 1567715,
              "template_id": 1
              },
              "activity": "Retail",
              "sector": "Retail",
              "theme": "Conflict Zones",
              "use": "to bolster his working capital and stock up on kitchen utensils that he will sell to increase his revenue. \r\n",
              "location": {
              "country_code": "BI",
              "country": "Burundi",
              "town": "Bujumbura",
              "geo": {
              "level": "country",
              "pairs": "-3.5 30",
              "type": "point"
              }
              },
              "partner_id": 162,
              "posted_date": "2014-03-26T15:20:02Z",
              "planned_expiration_date": "2014-04-25T15:20:02Z",
              "loan_amount": 1925,
              "borrower_count": 20,
              "lender_count": 0,
              "bonus_credit_eligibility": false
              },
              {
              "id": 688450,
              "name": "Eletta",
              "description": {
              "languages": [
                            "en"
                            ]
              },
              "status": "fundraising",
              "funded_amount": 0,
              "basket_amount": 0,
              "image": {
              "id": 1567988,
              "template_id": 1
              },
              "activity": "Home Products Sales",
              "sector": "Retail",
              "theme": "Conflict Zones",
              "use": "to purchase rubber dishes such as plates, bowls, cups, etc.",
              "location": {
              "country_code": "LR",
              "country": "Liberia",
              "town": "Ganta Area",
              "geo": {
              "level": "country",
              "pairs": "6.5 -9.5",
              "type": "point"
              }
              },
              "partner_id": 182,
              "posted_date": "2014-03-26T15:20:02Z",
              "planned_expiration_date": "2014-04-25T15:20:02Z",
              "loan_amount": 275,
              "borrower_count": 1,
              "lender_count": 0,
              "bonus_credit_eligibility": false
              },
              {
              "id": 688436,
              "name": "Nedime",
              "description": {
              "languages": [
                            "en"
                            ]
              },
              "status": "fundraising",
              "funded_amount": 100,
              "basket_amount": 25,
              "image": {
              "id": 1567960,
              "template_id": 1
              },
              "activity": "Personal Medical Expenses",
              "sector": "Health",
              "theme": "Underfunded Areas",
              "use": "to cover her medical expenses ",
              "location": {
              "country_code": "AL",
              "country": "Albania",
              "town": "Korce",
              "geo": {
              "level": "country",
              "pairs": "41 20",
              "type": "point"
              }
              },
              "partner_id": 239,
              "posted_date": "2014-03-26T15:10:03Z",
              "planned_expiration_date": "2014-04-25T15:10:03Z",
              "loan_amount": 500,
              "borrower_count": 1,
              "lender_count": 4,
              "bonus_credit_eligibility": false
              },
              {
              "id": 688439,
              "name": "Getrude",
              "description": {
              "languages": [
                            "en"
                            ]
              },
              "status": "fundraising",
              "funded_amount": 75,
              "basket_amount": 0,
              "image": {
              "id": 1567968,
              "template_id": 1
              },
              "activity": "Food",
              "sector": "Food",
              "theme": "Conflict Zones",
              "use": "to purchase more sugar, rice and milk for her business. ",
              "location": {
              "country_code": "LR",
              "country": "Liberia",
              "town": "Sinkor",
              "geo": {
              "level": "country",
              "pairs": "6.5 -9.5",
              "type": "point"
              }
              },
              "partner_id": 182,
              "posted_date": "2014-03-26T15:10:03Z",
              "planned_expiration_date": "2014-04-25T15:10:03Z",
              "loan_amount": 150,
              "borrower_count": 1,
              "lender_count": 3,
              "bonus_credit_eligibility": false
              },
              {
              "id": 686761,
              "name": "Mateo",
              "description": {
              "languages": [
                            "es",
                            "en"
                            ]
              },
              "status": "fundraising",
              "funded_amount": 0,
              "basket_amount": 0,
              "image": {
              "id": 1564877,
              "template_id": 1
              },
              "activity": "Rickshaw",
              "sector": "Transportation",
              "theme": "Underfunded Areas",
              "use": "to buy tires and spare parts for his vehicle.",
              "location": {
              "country_code": "PE",
              "country": "Peru",
              "town": "Pucará - Jaén - Cajamarca",
              "geo": {
              "level": "country",
              "pairs": "-10 -76",
              "type": "point"
              }
              },
              "partner_id": 143,
              "posted_date": "2014-03-26T15:10:02Z",
              "planned_expiration_date": "2014-04-25T15:10:02Z",
              "loan_amount": 550,
              "borrower_count": 1,
              "lender_count": 0,
              "bonus_credit_eligibility": true
              },
              {
              "id": 686769,
              "name": "Edith",
              "description": {
              "languages": [
                            "es",
                            "en"
                            ]
              },
              "status": "fundraising",
              "funded_amount": 25,
              "basket_amount": 0,
              "image": {
              "id": 1564903,
              "template_id": 1
              },
              "activity": "Agriculture",
              "sector": "Agriculture",
              "theme": "Underfunded Areas",
              "use": "to pay day labourers for looking after her pineapple crop.",
              "location": {
              "country_code": "PE",
              "country": "Peru",
              "town": "Pucará - Jaén - Cajamarca",
              "geo": {
              "level": "country",
              "pairs": "-10 -76",
              "type": "point"
              }
              },
              "partner_id": 143,
              "posted_date": "2014-03-26T15:10:02Z",
              "planned_expiration_date": "2014-04-25T15:10:02Z",
              "loan_amount": 550,
              "borrower_count": 1,
              "lender_count": 1,
              "bonus_credit_eligibility": true
              },
              {
              "id": 688435,
              "name": "Orether",
              "description": {
              "languages": [
                            "en"
                            ]
              },
              "status": "fundraising",
              "funded_amount": 0,
              "basket_amount": 25,
              "image": {
              "id": 1567958,
              "template_id": 1
              },
              "activity": "Fish Selling",
              "sector": "Food",
              "theme": "Conflict Zones",
              "use": "to buy more fish for her business",
              "location": {
              "country_code": "LR",
              "country": "Liberia",
              "town": "Sinkor",
              "geo": {
              "level": "country",
              "pairs": "6.5 -9.5",
              "type": "point"
              }
              },
              "partner_id": 182,
              "posted_date": "2014-03-26T15:00:02Z",
              "planned_expiration_date": "2014-04-25T15:00:02Z",
              "loan_amount": 200,
              "borrower_count": 1,
              "lender_count": 0,
              "bonus_credit_eligibility": false
              },
              {
              "id": 686760,
              "name": "Juan Pablo",
              "description": {
              "languages": [
                            "es",
                            "en"
                            ]
              },
              "status": "fundraising",
              "funded_amount": 0,
              "basket_amount": 0,
              "image": {
              "id": 1564871,
              "template_id": 1
              },
              "activity": "Animal Sales",
              "sector": "Agriculture",
              "theme": "Underfunded Areas",
              "use": "to buy animal feed to fatten up his animals.",
              "location": {
              "country_code": "PE",
              "country": "Peru",
              "town": "Oyotún - Chiclayo",
              "geo": {
              "level": "country",
              "pairs": "-10 -76",
              "type": "point"
              }
              },
              "partner_id": 143,
              "posted_date": "2014-03-26T14:50:01Z",
              "planned_expiration_date": "2014-04-25T14:50:01Z",
              "loan_amount": 725,
              "borrower_count": 1,
              "lender_count": 0,
              "bonus_credit_eligibility": true
              },
              {
              "id": 686757,
              "name": "Flor De Estrellas Group",
              "description": {
              "languages": [
                            "es",
                            "en"
                            ]
              },
              "status": "fundraising",
              "funded_amount": 350,
              "basket_amount": 25,
              "image": {
              "id": 1564848,
              "template_id": 1
              },
              "activity": "Clothing",
              "sector": "Clothing",
              "use": "to buy fabric wholesale.",
              "location": {
              "country_code": "BO",
              "country": "Bolivia",
              "town": "La Paz  / El Alto",
              "geo": {
              "level": "town",
              "pairs": "-16.483333 -68.183333",
              "type": "point"
              }
              },
              "partner_id": 59,
              "posted_date": "2014-03-26T14:40:01Z",
              "planned_expiration_date": "2014-04-25T14:40:01Z",
              "loan_amount": 3350,
              "borrower_count": 8,
              "lender_count": 7,
              "bonus_credit_eligibility": true
              },
              {
              "id": 686758,
              "name": "Maria De Jesus",
              "description": {
              "languages": [
                            "es",
                            "en"
                            ]
              },
              "status": "fundraising",
              "funded_amount": 200,
              "basket_amount": 50,
              "image": {
              "id": 1564816,
              "template_id": 1
              },
              "activity": "Dairy",
              "sector": "Agriculture",
              "theme": "Rural Exclusion",
              "use": "Buy two cows",
              "location": {
              "country_code": "SV",
              "country": "El Salvador",
              "town": "Usulután",
              "geo": {
              "level": "country",
              "pairs": "13.833333 -88.916667",
              "type": "point"
              }
              },
              "partner_id": 199,
              "posted_date": "2014-03-26T14:40:01Z",
              "planned_expiration_date": "2014-04-25T14:40:01Z",
              "loan_amount": 1000,
              "borrower_count": 1,
              "lender_count": 8,
              "bonus_credit_eligibility": true
              },
              {
              "id": 688389,
              "name": "Tiny",
              "description": {
              "languages": [
                            "en"
                            ]
              },
              "status": "fundraising",
              "funded_amount": 50,
              "basket_amount": 0,
              "image": {
              "id": 1567900,
              "template_id": 1
              },
              "activity": "Clothing Sales",
              "sector": "Clothing",
              "theme": "Conflict Zones",
              "use": "to purchase more clothes for her business.",
              "location": {
              "country_code": "LR",
              "country": "Liberia",
              "town": "Sinkor",
              "geo": {
              "level": "country",
              "pairs": "6.5 -9.5",
              "type": "point"
              }
              },
              "partner_id": 182,
              "posted_date": "2014-03-26T14:30:04Z",
              "planned_expiration_date": "2014-04-25T14:30:03Z",
              "loan_amount": 250,
              "borrower_count": 1,
              "lender_count": 2,
              "bonus_credit_eligibility": false
              }
              ]
}